{
    "count": 39,
    "next": "https://api.mangaowl.to/v1/chapters/64684/images?page=2",
    "previous": null,
    "results": [
        {
            "image": "https://cdn-2.mangaowl.to/media/content/6c8af33a-991c-48fa-a562-c01be9732e2f/64684/1.jpg"
        },
        {
            "image": "https://cdn-2.mangaowl.to/media/content/6c8af33a-991c-48fa-a562-c01be9732e2f/64684/2.jpg"
        },
        {
            "image": "https://cdn-2.mangaowl.to/media/content/6c8af33a-991c-48fa-a562-c01be9732e2f/64684/3.jpg"
        },
        {
            "image": "https://cdn-2.mangaowl.to/media/content/6c8af33a-991c-48fa-a562-c01be9732e2f/64684/4.jpg"
        },
        {
            "image": "https://cdn-2.mangaowl.to/media/content/6c8af33a-991c-48fa-a562-c01be9732e2f/64684/5.jpg"
        },
        {
            "image": "https://cdn-2.mangaowl.to/media/content/6c8af33a-991c-48fa-a562-c01be9732e2f/64684/6.jpg"
        },
        {
            "image": "https://cdn-2.mangaowl.to/media/content/6c8af33a-991c-48fa-a562-c01be9732e2f/64684/7.jpg"
        },
        {
            "image": "https://cdn-2.mangaowl.to/media/content/6c8af33a-991c-48fa-a562-c01be9732e2f/64684/8.jpg"
        },
        {
            "image": "https://cdn-2.mangaowl.to/media/content/6c8af33a-991c-48fa-a562-c01be9732e2f/64684/9.jpg"
        },
        {
            "image": "https://cdn-2.mangaowl.to/media/content/6c8af33a-991c-48fa-a562-c01be9732e2f/64684/10.jpg"
        },
        {
            "image": "https://cdn-2.mangaowl.to/media/content/6c8af33a-991c-48fa-a562-c01be9732e2f/64684/11.jpg"
        },
        {
            "image": "https://cdn-2.mangaowl.to/media/content/6c8af33a-991c-48fa-a562-c01be9732e2f/64684/12.jpg"
        },
        {
            "image": "https://cdn-2.mangaowl.to/media/content/6c8af33a-991c-48fa-a562-c01be9732e2f/64684/13.jpg"
        },
        {
            "image": "https://cdn-2.mangaowl.to/media/content/6c8af33a-991c-48fa-a562-c01be9732e2f/64684/14.jpg"
        },
        {
            "image": "https://cdn-2.mangaowl.to/media/content/6c8af33a-991c-48fa-a562-c01be9732e2f/64684/15.jpg"
        },
        {
            "image": "https://cdn-2.mangaowl.to/media/content/6c8af33a-991c-48fa-a562-c01be9732e2f/64684/16.jpg"
        },
        {
            "image": "https://cdn-2.mangaowl.to/media/content/6c8af33a-991c-48fa-a562-c01be9732e2f/64684/17.jpg"
        },
        {
            "image": "https://cdn-2.mangaowl.to/media/content/6c8af33a-991c-48fa-a562-c01be9732e2f/64684/18.jpg"
        },
        {
            "image": "https://cdn-2.mangaowl.to/media/content/6c8af33a-991c-48fa-a562-c01be9732e2f/64684/19.jpg"
        },
        {
            "image": "https://cdn-2.mangaowl.to/media/content/6c8af33a-991c-48fa-a562-c01be9732e2f/64684/20.jpg"
        },
        {
            "image": "https://cdn-2.mangaowl.to/media/content/6c8af33a-991c-48fa-a562-c01be9732e2f/64684/21.jpg"
        },
        {
            "image": "https://cdn-2.mangaowl.to/media/content/6c8af33a-991c-48fa-a562-c01be9732e2f/64684/22.jpg"
        },
        {
            "image": "https://cdn-2.mangaowl.to/media/content/6c8af33a-991c-48fa-a562-c01be9732e2f/64684/23.jpg"
        },
        {
            "image": "https://cdn-2.mangaowl.to/media/content/6c8af33a-991c-48fa-a562-c01be9732e2f/64684/24.jpg"
        }
    ]
}